<?xml version="1.0" encoding="UTF-8"?>
<session version="1.0">
<refactoring accessors="true" comment="Delete element from project &apos;Design_Pattern&apos;&#x0D;&#x0A;- Original project: &apos;Design_Pattern&apos;&#x0D;&#x0A;- Original element: &apos;com.design.abstractfactory.abc.java&apos;" description="Delete element" element1="/src&lt;com.design.abstractfactory{abc.java" elements="1" flags="589830" id="org.eclipse.jdt.ui.delete" resources="0" stamp="1603994913731" subPackages="false" version="1.0"/>
</session>