<?xml version="1.0" encoding="UTF-8"?>
<session version="1.0">
<refactoring comment="Rename type &apos;com.dynamic.programming.LIS&apos; to &apos;Knapsack&apos;&#x0D;&#x0A;- Original project: &apos;Dynamic_Programmin&apos;&#x0D;&#x0A;- Original element: &apos;com.dynamic.programming.LIS&apos;&#x0D;&#x0A;- Renamed element: &apos;com.dynamic.programming.Knapsack&apos;&#x0D;&#x0A;- Update references to refactored element&#x0D;&#x0A;- Update textual occurrences in comments and strings" description="Rename type &apos;LIS&apos;" flags="589830" id="org.eclipse.jdt.ui.rename.type" input="/src&lt;com.dynamic.programming{LIS.java[LIS" matchStrategy="1" name="Knapsack" qualified="false" references="true" similarDeclarations="false" stamp="1576956678136" textual="false" version="1.0"/>
</session>