<?xml version="1.0" encoding="UTF-8"?>
<session version="1.0">
<refactoring accessors="true" comment="Delete element from project &apos;Binary_Tree&apos;&#x0D;&#x0A;- Original project: &apos;Binary_Tree&apos;&#x0D;&#x0A;- Original element: &apos;Binary_Tree/src/com.novell&apos;" description="Delete element" element1="/src&lt;com.novell" elements="1" flags="589830" id="org.eclipse.jdt.ui.delete" resources="0" stamp="1600198187337" subPackages="false" version="1.0"/>
</session>